G04 #@! TF.GenerationSoftware,KiCad,Pcbnew,5.0.2-bee76a0~70~ubuntu18.04.1*
G04 #@! TF.CreationDate,2019-08-12T13:45:13+02:00*
G04 #@! TF.ProjectId,motionBreakout,6d6f7469-6f6e-4427-9265-616b6f75742e,rev?*
G04 #@! TF.SameCoordinates,Original*
G04 #@! TF.FileFunction,Soldermask,Bot*
G04 #@! TF.FilePolarity,Negative*
%FSLAX46Y46*%
G04 Gerber Fmt 4.6, Leading zero omitted, Abs format (unit mm)*
G04 Created by KiCad (PCBNEW 5.0.2-bee76a0~70~ubuntu18.04.1) date Mon 12 Aug 2019 13:45:13 CEST*
%MOMM*%
%LPD*%
G01*
G04 APERTURE LIST*
%ADD10C,0.100000*%
G04 APERTURE END LIST*
D10*
G36*
X82590442Y-67105518D02*
X82656627Y-67112037D01*
X82769853Y-67146384D01*
X82826467Y-67163557D01*
X82965087Y-67237652D01*
X82982991Y-67247222D01*
X83018729Y-67276552D01*
X83120186Y-67359814D01*
X83203448Y-67461271D01*
X83232778Y-67497009D01*
X83232779Y-67497011D01*
X83316443Y-67653533D01*
X83316443Y-67653534D01*
X83367963Y-67823373D01*
X83385359Y-68000000D01*
X83367963Y-68176627D01*
X83333616Y-68289853D01*
X83316443Y-68346467D01*
X83242348Y-68485087D01*
X83232778Y-68502991D01*
X83203448Y-68538729D01*
X83120186Y-68640186D01*
X83018729Y-68723448D01*
X82982991Y-68752778D01*
X82982989Y-68752779D01*
X82826467Y-68836443D01*
X82769853Y-68853616D01*
X82656627Y-68887963D01*
X82590443Y-68894481D01*
X82524260Y-68901000D01*
X82435740Y-68901000D01*
X82369557Y-68894481D01*
X82303373Y-68887963D01*
X82190147Y-68853616D01*
X82133533Y-68836443D01*
X81977011Y-68752779D01*
X81977009Y-68752778D01*
X81941271Y-68723448D01*
X81839814Y-68640186D01*
X81756552Y-68538729D01*
X81727222Y-68502991D01*
X81717652Y-68485087D01*
X81643557Y-68346467D01*
X81626384Y-68289853D01*
X81592037Y-68176627D01*
X81574641Y-68000000D01*
X81592037Y-67823373D01*
X81643557Y-67653534D01*
X81643557Y-67653533D01*
X81727221Y-67497011D01*
X81727222Y-67497009D01*
X81756552Y-67461271D01*
X81839814Y-67359814D01*
X81941271Y-67276552D01*
X81977009Y-67247222D01*
X81994913Y-67237652D01*
X82133533Y-67163557D01*
X82190147Y-67146384D01*
X82303373Y-67112037D01*
X82369558Y-67105518D01*
X82435740Y-67099000D01*
X82524260Y-67099000D01*
X82590442Y-67105518D01*
X82590442Y-67105518D01*
G37*
G36*
X85130442Y-67105518D02*
X85196627Y-67112037D01*
X85309853Y-67146384D01*
X85366467Y-67163557D01*
X85505087Y-67237652D01*
X85522991Y-67247222D01*
X85558729Y-67276552D01*
X85660186Y-67359814D01*
X85743448Y-67461271D01*
X85772778Y-67497009D01*
X85772779Y-67497011D01*
X85856443Y-67653533D01*
X85856443Y-67653534D01*
X85907963Y-67823373D01*
X85925359Y-68000000D01*
X85907963Y-68176627D01*
X85873616Y-68289853D01*
X85856443Y-68346467D01*
X85782348Y-68485087D01*
X85772778Y-68502991D01*
X85743448Y-68538729D01*
X85660186Y-68640186D01*
X85558729Y-68723448D01*
X85522991Y-68752778D01*
X85522989Y-68752779D01*
X85366467Y-68836443D01*
X85309853Y-68853616D01*
X85196627Y-68887963D01*
X85130443Y-68894481D01*
X85064260Y-68901000D01*
X84975740Y-68901000D01*
X84909557Y-68894481D01*
X84843373Y-68887963D01*
X84730147Y-68853616D01*
X84673533Y-68836443D01*
X84517011Y-68752779D01*
X84517009Y-68752778D01*
X84481271Y-68723448D01*
X84379814Y-68640186D01*
X84296552Y-68538729D01*
X84267222Y-68502991D01*
X84257652Y-68485087D01*
X84183557Y-68346467D01*
X84166384Y-68289853D01*
X84132037Y-68176627D01*
X84114641Y-68000000D01*
X84132037Y-67823373D01*
X84183557Y-67653534D01*
X84183557Y-67653533D01*
X84267221Y-67497011D01*
X84267222Y-67497009D01*
X84296552Y-67461271D01*
X84379814Y-67359814D01*
X84481271Y-67276552D01*
X84517009Y-67247222D01*
X84534913Y-67237652D01*
X84673533Y-67163557D01*
X84730147Y-67146384D01*
X84843373Y-67112037D01*
X84909558Y-67105518D01*
X84975740Y-67099000D01*
X85064260Y-67099000D01*
X85130442Y-67105518D01*
X85130442Y-67105518D01*
G37*
G36*
X87670442Y-67105518D02*
X87736627Y-67112037D01*
X87849853Y-67146384D01*
X87906467Y-67163557D01*
X88045087Y-67237652D01*
X88062991Y-67247222D01*
X88098729Y-67276552D01*
X88200186Y-67359814D01*
X88283448Y-67461271D01*
X88312778Y-67497009D01*
X88312779Y-67497011D01*
X88396443Y-67653533D01*
X88396443Y-67653534D01*
X88447963Y-67823373D01*
X88465359Y-68000000D01*
X88447963Y-68176627D01*
X88413616Y-68289853D01*
X88396443Y-68346467D01*
X88322348Y-68485087D01*
X88312778Y-68502991D01*
X88283448Y-68538729D01*
X88200186Y-68640186D01*
X88098729Y-68723448D01*
X88062991Y-68752778D01*
X88062989Y-68752779D01*
X87906467Y-68836443D01*
X87849853Y-68853616D01*
X87736627Y-68887963D01*
X87670443Y-68894481D01*
X87604260Y-68901000D01*
X87515740Y-68901000D01*
X87449557Y-68894481D01*
X87383373Y-68887963D01*
X87270147Y-68853616D01*
X87213533Y-68836443D01*
X87057011Y-68752779D01*
X87057009Y-68752778D01*
X87021271Y-68723448D01*
X86919814Y-68640186D01*
X86836552Y-68538729D01*
X86807222Y-68502991D01*
X86797652Y-68485087D01*
X86723557Y-68346467D01*
X86706384Y-68289853D01*
X86672037Y-68176627D01*
X86654641Y-68000000D01*
X86672037Y-67823373D01*
X86723557Y-67653534D01*
X86723557Y-67653533D01*
X86807221Y-67497011D01*
X86807222Y-67497009D01*
X86836552Y-67461271D01*
X86919814Y-67359814D01*
X87021271Y-67276552D01*
X87057009Y-67247222D01*
X87074913Y-67237652D01*
X87213533Y-67163557D01*
X87270147Y-67146384D01*
X87383373Y-67112037D01*
X87449558Y-67105518D01*
X87515740Y-67099000D01*
X87604260Y-67099000D01*
X87670442Y-67105518D01*
X87670442Y-67105518D01*
G37*
G36*
X78301000Y-68901000D02*
X76499000Y-68901000D01*
X76499000Y-67099000D01*
X78301000Y-67099000D01*
X78301000Y-68901000D01*
X78301000Y-68901000D01*
G37*
G36*
X80050442Y-67105518D02*
X80116627Y-67112037D01*
X80229853Y-67146384D01*
X80286467Y-67163557D01*
X80425087Y-67237652D01*
X80442991Y-67247222D01*
X80478729Y-67276552D01*
X80580186Y-67359814D01*
X80663448Y-67461271D01*
X80692778Y-67497009D01*
X80692779Y-67497011D01*
X80776443Y-67653533D01*
X80776443Y-67653534D01*
X80827963Y-67823373D01*
X80845359Y-68000000D01*
X80827963Y-68176627D01*
X80793616Y-68289853D01*
X80776443Y-68346467D01*
X80702348Y-68485087D01*
X80692778Y-68502991D01*
X80663448Y-68538729D01*
X80580186Y-68640186D01*
X80478729Y-68723448D01*
X80442991Y-68752778D01*
X80442989Y-68752779D01*
X80286467Y-68836443D01*
X80229853Y-68853616D01*
X80116627Y-68887963D01*
X80050443Y-68894481D01*
X79984260Y-68901000D01*
X79895740Y-68901000D01*
X79829557Y-68894481D01*
X79763373Y-68887963D01*
X79650147Y-68853616D01*
X79593533Y-68836443D01*
X79437011Y-68752779D01*
X79437009Y-68752778D01*
X79401271Y-68723448D01*
X79299814Y-68640186D01*
X79216552Y-68538729D01*
X79187222Y-68502991D01*
X79177652Y-68485087D01*
X79103557Y-68346467D01*
X79086384Y-68289853D01*
X79052037Y-68176627D01*
X79034641Y-68000000D01*
X79052037Y-67823373D01*
X79103557Y-67653534D01*
X79103557Y-67653533D01*
X79187221Y-67497011D01*
X79187222Y-67497009D01*
X79216552Y-67461271D01*
X79299814Y-67359814D01*
X79401271Y-67276552D01*
X79437009Y-67247222D01*
X79454913Y-67237652D01*
X79593533Y-67163557D01*
X79650147Y-67146384D01*
X79763373Y-67112037D01*
X79829558Y-67105518D01*
X79895740Y-67099000D01*
X79984260Y-67099000D01*
X80050442Y-67105518D01*
X80050442Y-67105518D01*
G37*
G36*
X65375256Y-63391298D02*
X65481579Y-63412447D01*
X65782042Y-63536903D01*
X66048852Y-63715180D01*
X66052454Y-63717587D01*
X66282413Y-63947546D01*
X66463098Y-64217960D01*
X66587553Y-64518422D01*
X66651000Y-64837389D01*
X66651000Y-65162611D01*
X66587553Y-65481578D01*
X66463098Y-65782040D01*
X66282413Y-66052454D01*
X66052454Y-66282413D01*
X66052451Y-66282415D01*
X65782042Y-66463097D01*
X65481579Y-66587553D01*
X65375256Y-66608702D01*
X65162611Y-66651000D01*
X64837389Y-66651000D01*
X64624744Y-66608702D01*
X64518421Y-66587553D01*
X64217958Y-66463097D01*
X63947549Y-66282415D01*
X63947546Y-66282413D01*
X63717587Y-66052454D01*
X63536902Y-65782040D01*
X63412447Y-65481578D01*
X63349000Y-65162611D01*
X63349000Y-64837389D01*
X63412447Y-64518422D01*
X63536902Y-64217960D01*
X63717587Y-63947546D01*
X63947546Y-63717587D01*
X63951148Y-63715180D01*
X64217958Y-63536903D01*
X64518421Y-63412447D01*
X64624744Y-63391298D01*
X64837389Y-63349000D01*
X65162611Y-63349000D01*
X65375256Y-63391298D01*
X65375256Y-63391298D01*
G37*
G36*
X100375256Y-63391298D02*
X100481579Y-63412447D01*
X100782042Y-63536903D01*
X101048852Y-63715180D01*
X101052454Y-63717587D01*
X101282413Y-63947546D01*
X101463098Y-64217960D01*
X101587553Y-64518422D01*
X101651000Y-64837389D01*
X101651000Y-65162611D01*
X101587553Y-65481578D01*
X101463098Y-65782040D01*
X101282413Y-66052454D01*
X101052454Y-66282413D01*
X101052451Y-66282415D01*
X100782042Y-66463097D01*
X100481579Y-66587553D01*
X100375256Y-66608702D01*
X100162611Y-66651000D01*
X99837389Y-66651000D01*
X99624744Y-66608702D01*
X99518421Y-66587553D01*
X99217958Y-66463097D01*
X98947549Y-66282415D01*
X98947546Y-66282413D01*
X98717587Y-66052454D01*
X98536902Y-65782040D01*
X98412447Y-65481578D01*
X98349000Y-65162611D01*
X98349000Y-64837389D01*
X98412447Y-64518422D01*
X98536902Y-64217960D01*
X98717587Y-63947546D01*
X98947546Y-63717587D01*
X98951148Y-63715180D01*
X99217958Y-63536903D01*
X99518421Y-63412447D01*
X99624744Y-63391298D01*
X99837389Y-63349000D01*
X100162611Y-63349000D01*
X100375256Y-63391298D01*
X100375256Y-63391298D01*
G37*
G36*
X65551000Y-59131000D02*
X62449000Y-59131000D01*
X62449000Y-56029000D01*
X65551000Y-56029000D01*
X65551000Y-59131000D01*
X65551000Y-59131000D01*
G37*
G36*
X94648228Y-54681703D02*
X94803100Y-54745853D01*
X94942481Y-54838985D01*
X95061015Y-54957519D01*
X95154147Y-55096900D01*
X95218297Y-55251772D01*
X95251000Y-55416184D01*
X95251000Y-55583816D01*
X95218297Y-55748228D01*
X95154147Y-55903100D01*
X95061015Y-56042481D01*
X94942481Y-56161015D01*
X94803100Y-56254147D01*
X94648228Y-56318297D01*
X94483816Y-56351000D01*
X94316184Y-56351000D01*
X94151772Y-56318297D01*
X93996900Y-56254147D01*
X93857519Y-56161015D01*
X93738985Y-56042481D01*
X93645853Y-55903100D01*
X93581703Y-55748228D01*
X93549000Y-55583816D01*
X93549000Y-55416184D01*
X93581703Y-55251772D01*
X93645853Y-55096900D01*
X93738985Y-54957519D01*
X93857519Y-54838985D01*
X93996900Y-54745853D01*
X94151772Y-54681703D01*
X94316184Y-54649000D01*
X94483816Y-54649000D01*
X94648228Y-54681703D01*
X94648228Y-54681703D01*
G37*
G36*
X102248228Y-54681703D02*
X102403100Y-54745853D01*
X102542481Y-54838985D01*
X102661015Y-54957519D01*
X102754147Y-55096900D01*
X102818297Y-55251772D01*
X102851000Y-55416184D01*
X102851000Y-55583816D01*
X102818297Y-55748228D01*
X102754147Y-55903100D01*
X102661015Y-56042481D01*
X102542481Y-56161015D01*
X102403100Y-56254147D01*
X102248228Y-56318297D01*
X102083816Y-56351000D01*
X101916184Y-56351000D01*
X101751772Y-56318297D01*
X101596900Y-56254147D01*
X101457519Y-56161015D01*
X101338985Y-56042481D01*
X101245853Y-55903100D01*
X101181703Y-55748228D01*
X101149000Y-55583816D01*
X101149000Y-55416184D01*
X101181703Y-55251772D01*
X101245853Y-55096900D01*
X101338985Y-54957519D01*
X101457519Y-54838985D01*
X101596900Y-54745853D01*
X101751772Y-54681703D01*
X101916184Y-54649000D01*
X102083816Y-54649000D01*
X102248228Y-54681703D01*
X102248228Y-54681703D01*
G37*
G36*
X64352527Y-50988736D02*
X64452410Y-51008604D01*
X64734674Y-51125521D01*
X64988705Y-51295259D01*
X65204741Y-51511295D01*
X65374479Y-51765326D01*
X65491396Y-52047590D01*
X65551000Y-52347240D01*
X65551000Y-52652760D01*
X65491396Y-52952410D01*
X65374479Y-53234674D01*
X65204741Y-53488705D01*
X64988705Y-53704741D01*
X64734674Y-53874479D01*
X64452410Y-53991396D01*
X64352527Y-54011264D01*
X64152762Y-54051000D01*
X63847238Y-54051000D01*
X63647473Y-54011264D01*
X63547590Y-53991396D01*
X63265326Y-53874479D01*
X63011295Y-53704741D01*
X62795259Y-53488705D01*
X62625521Y-53234674D01*
X62508604Y-52952410D01*
X62449000Y-52652760D01*
X62449000Y-52347240D01*
X62508604Y-52047590D01*
X62625521Y-51765326D01*
X62795259Y-51511295D01*
X63011295Y-51295259D01*
X63265326Y-51125521D01*
X63547590Y-51008604D01*
X63647473Y-50988736D01*
X63847238Y-50949000D01*
X64152762Y-50949000D01*
X64352527Y-50988736D01*
X64352527Y-50988736D01*
G37*
G36*
X64352527Y-45908736D02*
X64452410Y-45928604D01*
X64734674Y-46045521D01*
X64988705Y-46215259D01*
X65204741Y-46431295D01*
X65374479Y-46685326D01*
X65491396Y-46967590D01*
X65551000Y-47267240D01*
X65551000Y-47572760D01*
X65491396Y-47872410D01*
X65374479Y-48154674D01*
X65204741Y-48408705D01*
X64988705Y-48624741D01*
X64734674Y-48794479D01*
X64452410Y-48911396D01*
X64352527Y-48931264D01*
X64152762Y-48971000D01*
X63847238Y-48971000D01*
X63647473Y-48931264D01*
X63547590Y-48911396D01*
X63265326Y-48794479D01*
X63011295Y-48624741D01*
X62795259Y-48408705D01*
X62625521Y-48154674D01*
X62508604Y-47872410D01*
X62449000Y-47572760D01*
X62449000Y-47267240D01*
X62508604Y-46967590D01*
X62625521Y-46685326D01*
X62795259Y-46431295D01*
X63011295Y-46215259D01*
X63265326Y-46045521D01*
X63547590Y-45928604D01*
X63647473Y-45908736D01*
X63847238Y-45869000D01*
X64152762Y-45869000D01*
X64352527Y-45908736D01*
X64352527Y-45908736D01*
G37*
G36*
X102200416Y-38656357D02*
X102331579Y-38682447D01*
X102632042Y-38806903D01*
X102898852Y-38985180D01*
X102902454Y-38987587D01*
X103132413Y-39217546D01*
X103132415Y-39217549D01*
X103167072Y-39269416D01*
X103313098Y-39487960D01*
X103323129Y-39512178D01*
X103384450Y-39660218D01*
X103437553Y-39788422D01*
X103501000Y-40107389D01*
X103501000Y-40432611D01*
X103437553Y-40751578D01*
X103313098Y-41052040D01*
X103132413Y-41322454D01*
X102902454Y-41552413D01*
X102902451Y-41552415D01*
X102632042Y-41733097D01*
X102331579Y-41857553D01*
X102225256Y-41878702D01*
X102012611Y-41921000D01*
X101687389Y-41921000D01*
X101474744Y-41878702D01*
X101368421Y-41857553D01*
X101067958Y-41733097D01*
X100797549Y-41552415D01*
X100797546Y-41552413D01*
X100567587Y-41322454D01*
X100386902Y-41052040D01*
X100262447Y-40751578D01*
X100199000Y-40432611D01*
X100199000Y-40107389D01*
X100262447Y-39788422D01*
X100315551Y-39660218D01*
X100376871Y-39512178D01*
X100386902Y-39487960D01*
X100532929Y-39269416D01*
X100567585Y-39217549D01*
X100567587Y-39217546D01*
X100797546Y-38987587D01*
X100801148Y-38985180D01*
X101067958Y-38806903D01*
X101368421Y-38682447D01*
X101499584Y-38656357D01*
X101687389Y-38619000D01*
X102012611Y-38619000D01*
X102200416Y-38656357D01*
X102200416Y-38656357D01*
G37*
G36*
X63525256Y-38551298D02*
X63631579Y-38572447D01*
X63932042Y-38696903D01*
X64096667Y-38806902D01*
X64202454Y-38877587D01*
X64432413Y-39107546D01*
X64432415Y-39107549D01*
X64540571Y-39269415D01*
X64613098Y-39377960D01*
X64737553Y-39678422D01*
X64801000Y-39997389D01*
X64801000Y-40322611D01*
X64737553Y-40641578D01*
X64613098Y-40942040D01*
X64432413Y-41212454D01*
X64202454Y-41442413D01*
X64202451Y-41442415D01*
X63932042Y-41623097D01*
X63631579Y-41747553D01*
X63525256Y-41768702D01*
X63312611Y-41811000D01*
X62987389Y-41811000D01*
X62774744Y-41768702D01*
X62668421Y-41747553D01*
X62367958Y-41623097D01*
X62097549Y-41442415D01*
X62097546Y-41442413D01*
X61867587Y-41212454D01*
X61686902Y-40942040D01*
X61562447Y-40641578D01*
X61499000Y-40322611D01*
X61499000Y-39997389D01*
X61562447Y-39678422D01*
X61686902Y-39377960D01*
X61759430Y-39269415D01*
X61867585Y-39107549D01*
X61867587Y-39107546D01*
X62097546Y-38877587D01*
X62203333Y-38806902D01*
X62367958Y-38696903D01*
X62668421Y-38572447D01*
X62774744Y-38551298D01*
X62987389Y-38509000D01*
X63312611Y-38509000D01*
X63525256Y-38551298D01*
X63525256Y-38551298D01*
G37*
G36*
X96301000Y-39801000D02*
X94699000Y-39801000D01*
X94699000Y-38199000D01*
X96301000Y-38199000D01*
X96301000Y-39801000D01*
X96301000Y-39801000D01*
G37*
G36*
X72273643Y-38119781D02*
X72419415Y-38180162D01*
X72550611Y-38267824D01*
X72662176Y-38379389D01*
X72749838Y-38510585D01*
X72810219Y-38656357D01*
X72841000Y-38811107D01*
X72841000Y-38968893D01*
X72810219Y-39123643D01*
X72749838Y-39269415D01*
X72662176Y-39400611D01*
X72550611Y-39512176D01*
X72419415Y-39599838D01*
X72273643Y-39660219D01*
X72118893Y-39691000D01*
X71961107Y-39691000D01*
X71806357Y-39660219D01*
X71660585Y-39599838D01*
X71529389Y-39512176D01*
X71417824Y-39400611D01*
X71330162Y-39269415D01*
X71269781Y-39123643D01*
X71239000Y-38968893D01*
X71239000Y-38811107D01*
X71269781Y-38656357D01*
X71330162Y-38510585D01*
X71417824Y-38379389D01*
X71529389Y-38267824D01*
X71660585Y-38180162D01*
X71806357Y-38119781D01*
X71961107Y-38089000D01*
X72118893Y-38089000D01*
X72273643Y-38119781D01*
X72273643Y-38119781D01*
G37*
G36*
X93193643Y-36959781D02*
X93339415Y-37020162D01*
X93470611Y-37107824D01*
X93582176Y-37219389D01*
X93669838Y-37350585D01*
X93730219Y-37496357D01*
X93761000Y-37651107D01*
X93761000Y-37808893D01*
X93730219Y-37963643D01*
X93669838Y-38109415D01*
X93582176Y-38240611D01*
X93470611Y-38352176D01*
X93339415Y-38439838D01*
X93193643Y-38500219D01*
X93038893Y-38531000D01*
X92881107Y-38531000D01*
X92726357Y-38500219D01*
X92580585Y-38439838D01*
X92449389Y-38352176D01*
X92337824Y-38240611D01*
X92250162Y-38109415D01*
X92189781Y-37963643D01*
X92159000Y-37808893D01*
X92159000Y-37651107D01*
X92189781Y-37496357D01*
X92250162Y-37350585D01*
X92337824Y-37219389D01*
X92449389Y-37107824D01*
X92580585Y-37020162D01*
X92726357Y-36959781D01*
X92881107Y-36929000D01*
X93038893Y-36929000D01*
X93193643Y-36959781D01*
X93193643Y-36959781D01*
G37*
G36*
X69733643Y-36849781D02*
X69879415Y-36910162D01*
X70010611Y-36997824D01*
X70122176Y-37109389D01*
X70209838Y-37240585D01*
X70270219Y-37386357D01*
X70301000Y-37541107D01*
X70301000Y-37698893D01*
X70270219Y-37853643D01*
X70209838Y-37999415D01*
X70122176Y-38130611D01*
X70010611Y-38242176D01*
X69879415Y-38329838D01*
X69733643Y-38390219D01*
X69578893Y-38421000D01*
X69421107Y-38421000D01*
X69266357Y-38390219D01*
X69120585Y-38329838D01*
X68989389Y-38242176D01*
X68877824Y-38130611D01*
X68790162Y-37999415D01*
X68729781Y-37853643D01*
X68699000Y-37698893D01*
X68699000Y-37541107D01*
X68729781Y-37386357D01*
X68790162Y-37240585D01*
X68877824Y-37109389D01*
X68989389Y-36997824D01*
X69120585Y-36910162D01*
X69266357Y-36849781D01*
X69421107Y-36819000D01*
X69578893Y-36819000D01*
X69733643Y-36849781D01*
X69733643Y-36849781D01*
G37*
G36*
X95733643Y-35689781D02*
X95879415Y-35750162D01*
X96010611Y-35837824D01*
X96122176Y-35949389D01*
X96209838Y-36080585D01*
X96270219Y-36226357D01*
X96301000Y-36381107D01*
X96301000Y-36538893D01*
X96270219Y-36693643D01*
X96209838Y-36839415D01*
X96122176Y-36970611D01*
X96010611Y-37082176D01*
X95879415Y-37169838D01*
X95733643Y-37230219D01*
X95578893Y-37261000D01*
X95421107Y-37261000D01*
X95266357Y-37230219D01*
X95120585Y-37169838D01*
X94989389Y-37082176D01*
X94877824Y-36970611D01*
X94790162Y-36839415D01*
X94729781Y-36693643D01*
X94699000Y-36538893D01*
X94699000Y-36381107D01*
X94729781Y-36226357D01*
X94790162Y-36080585D01*
X94877824Y-35949389D01*
X94989389Y-35837824D01*
X95120585Y-35750162D01*
X95266357Y-35689781D01*
X95421107Y-35659000D01*
X95578893Y-35659000D01*
X95733643Y-35689781D01*
X95733643Y-35689781D01*
G37*
G36*
X72273643Y-35579781D02*
X72419415Y-35640162D01*
X72550611Y-35727824D01*
X72662176Y-35839389D01*
X72749838Y-35970585D01*
X72810219Y-36116357D01*
X72841000Y-36271107D01*
X72841000Y-36428893D01*
X72810219Y-36583643D01*
X72749838Y-36729415D01*
X72662176Y-36860611D01*
X72550611Y-36972176D01*
X72419415Y-37059838D01*
X72273643Y-37120219D01*
X72118893Y-37151000D01*
X71961107Y-37151000D01*
X71806357Y-37120219D01*
X71660585Y-37059838D01*
X71529389Y-36972176D01*
X71417824Y-36860611D01*
X71330162Y-36729415D01*
X71269781Y-36583643D01*
X71239000Y-36428893D01*
X71239000Y-36271107D01*
X71269781Y-36116357D01*
X71330162Y-35970585D01*
X71417824Y-35839389D01*
X71529389Y-35727824D01*
X71660585Y-35640162D01*
X71806357Y-35579781D01*
X71961107Y-35549000D01*
X72118893Y-35549000D01*
X72273643Y-35579781D01*
X72273643Y-35579781D01*
G37*
G36*
X93193643Y-34419781D02*
X93339415Y-34480162D01*
X93470611Y-34567824D01*
X93582176Y-34679389D01*
X93669838Y-34810585D01*
X93730219Y-34956357D01*
X93761000Y-35111107D01*
X93761000Y-35268893D01*
X93730219Y-35423643D01*
X93669838Y-35569415D01*
X93582176Y-35700611D01*
X93470611Y-35812176D01*
X93339415Y-35899838D01*
X93193643Y-35960219D01*
X93038893Y-35991000D01*
X92881107Y-35991000D01*
X92726357Y-35960219D01*
X92580585Y-35899838D01*
X92449389Y-35812176D01*
X92337824Y-35700611D01*
X92250162Y-35569415D01*
X92189781Y-35423643D01*
X92159000Y-35268893D01*
X92159000Y-35111107D01*
X92189781Y-34956357D01*
X92250162Y-34810585D01*
X92337824Y-34679389D01*
X92449389Y-34567824D01*
X92580585Y-34480162D01*
X92726357Y-34419781D01*
X92881107Y-34389000D01*
X93038893Y-34389000D01*
X93193643Y-34419781D01*
X93193643Y-34419781D01*
G37*
G36*
X69733643Y-34309781D02*
X69879415Y-34370162D01*
X70010611Y-34457824D01*
X70122176Y-34569389D01*
X70209838Y-34700585D01*
X70270219Y-34846357D01*
X70301000Y-35001107D01*
X70301000Y-35158893D01*
X70270219Y-35313643D01*
X70209838Y-35459415D01*
X70122176Y-35590611D01*
X70010611Y-35702176D01*
X69879415Y-35789838D01*
X69733643Y-35850219D01*
X69578893Y-35881000D01*
X69421107Y-35881000D01*
X69266357Y-35850219D01*
X69120585Y-35789838D01*
X68989389Y-35702176D01*
X68877824Y-35590611D01*
X68790162Y-35459415D01*
X68729781Y-35313643D01*
X68699000Y-35158893D01*
X68699000Y-35001107D01*
X68729781Y-34846357D01*
X68790162Y-34700585D01*
X68877824Y-34569389D01*
X68989389Y-34457824D01*
X69120585Y-34370162D01*
X69266357Y-34309781D01*
X69421107Y-34279000D01*
X69578893Y-34279000D01*
X69733643Y-34309781D01*
X69733643Y-34309781D01*
G37*
G36*
X95733643Y-33149781D02*
X95879415Y-33210162D01*
X96010611Y-33297824D01*
X96122176Y-33409389D01*
X96209838Y-33540585D01*
X96270219Y-33686357D01*
X96301000Y-33841107D01*
X96301000Y-33998893D01*
X96270219Y-34153643D01*
X96209838Y-34299415D01*
X96122176Y-34430611D01*
X96010611Y-34542176D01*
X95879415Y-34629838D01*
X95733643Y-34690219D01*
X95578893Y-34721000D01*
X95421107Y-34721000D01*
X95266357Y-34690219D01*
X95120585Y-34629838D01*
X94989389Y-34542176D01*
X94877824Y-34430611D01*
X94790162Y-34299415D01*
X94729781Y-34153643D01*
X94699000Y-33998893D01*
X94699000Y-33841107D01*
X94729781Y-33686357D01*
X94790162Y-33540585D01*
X94877824Y-33409389D01*
X94989389Y-33297824D01*
X95120585Y-33210162D01*
X95266357Y-33149781D01*
X95421107Y-33119000D01*
X95578893Y-33119000D01*
X95733643Y-33149781D01*
X95733643Y-33149781D01*
G37*
G36*
X72273643Y-33039781D02*
X72419415Y-33100162D01*
X72550611Y-33187824D01*
X72662176Y-33299389D01*
X72749838Y-33430585D01*
X72810219Y-33576357D01*
X72841000Y-33731107D01*
X72841000Y-33888893D01*
X72810219Y-34043643D01*
X72749838Y-34189415D01*
X72662176Y-34320611D01*
X72550611Y-34432176D01*
X72419415Y-34519838D01*
X72273643Y-34580219D01*
X72118893Y-34611000D01*
X71961107Y-34611000D01*
X71806357Y-34580219D01*
X71660585Y-34519838D01*
X71529389Y-34432176D01*
X71417824Y-34320611D01*
X71330162Y-34189415D01*
X71269781Y-34043643D01*
X71239000Y-33888893D01*
X71239000Y-33731107D01*
X71269781Y-33576357D01*
X71330162Y-33430585D01*
X71417824Y-33299389D01*
X71529389Y-33187824D01*
X71660585Y-33100162D01*
X71806357Y-33039781D01*
X71961107Y-33009000D01*
X72118893Y-33009000D01*
X72273643Y-33039781D01*
X72273643Y-33039781D01*
G37*
G36*
X93193643Y-31879781D02*
X93339415Y-31940162D01*
X93470611Y-32027824D01*
X93582176Y-32139389D01*
X93669838Y-32270585D01*
X93730219Y-32416357D01*
X93761000Y-32571107D01*
X93761000Y-32728893D01*
X93730219Y-32883643D01*
X93669838Y-33029415D01*
X93582176Y-33160611D01*
X93470611Y-33272176D01*
X93339415Y-33359838D01*
X93193643Y-33420219D01*
X93038893Y-33451000D01*
X92881107Y-33451000D01*
X92726357Y-33420219D01*
X92580585Y-33359838D01*
X92449389Y-33272176D01*
X92337824Y-33160611D01*
X92250162Y-33029415D01*
X92189781Y-32883643D01*
X92159000Y-32728893D01*
X92159000Y-32571107D01*
X92189781Y-32416357D01*
X92250162Y-32270585D01*
X92337824Y-32139389D01*
X92449389Y-32027824D01*
X92580585Y-31940162D01*
X92726357Y-31879781D01*
X92881107Y-31849000D01*
X93038893Y-31849000D01*
X93193643Y-31879781D01*
X93193643Y-31879781D01*
G37*
G36*
X69733643Y-31769781D02*
X69879415Y-31830162D01*
X70010611Y-31917824D01*
X70122176Y-32029389D01*
X70209838Y-32160585D01*
X70270219Y-32306357D01*
X70301000Y-32461107D01*
X70301000Y-32618893D01*
X70270219Y-32773643D01*
X70209838Y-32919415D01*
X70122176Y-33050611D01*
X70010611Y-33162176D01*
X69879415Y-33249838D01*
X69733643Y-33310219D01*
X69578893Y-33341000D01*
X69421107Y-33341000D01*
X69266357Y-33310219D01*
X69120585Y-33249838D01*
X68989389Y-33162176D01*
X68877824Y-33050611D01*
X68790162Y-32919415D01*
X68729781Y-32773643D01*
X68699000Y-32618893D01*
X68699000Y-32461107D01*
X68729781Y-32306357D01*
X68790162Y-32160585D01*
X68877824Y-32029389D01*
X68989389Y-31917824D01*
X69120585Y-31830162D01*
X69266357Y-31769781D01*
X69421107Y-31739000D01*
X69578893Y-31739000D01*
X69733643Y-31769781D01*
X69733643Y-31769781D01*
G37*
G36*
X95733643Y-30609781D02*
X95879415Y-30670162D01*
X96010611Y-30757824D01*
X96122176Y-30869389D01*
X96209838Y-31000585D01*
X96270219Y-31146357D01*
X96301000Y-31301107D01*
X96301000Y-31458893D01*
X96270219Y-31613643D01*
X96209838Y-31759415D01*
X96122176Y-31890611D01*
X96010611Y-32002176D01*
X95879415Y-32089838D01*
X95733643Y-32150219D01*
X95578893Y-32181000D01*
X95421107Y-32181000D01*
X95266357Y-32150219D01*
X95120585Y-32089838D01*
X94989389Y-32002176D01*
X94877824Y-31890611D01*
X94790162Y-31759415D01*
X94729781Y-31613643D01*
X94699000Y-31458893D01*
X94699000Y-31301107D01*
X94729781Y-31146357D01*
X94790162Y-31000585D01*
X94877824Y-30869389D01*
X94989389Y-30757824D01*
X95120585Y-30670162D01*
X95266357Y-30609781D01*
X95421107Y-30579000D01*
X95578893Y-30579000D01*
X95733643Y-30609781D01*
X95733643Y-30609781D01*
G37*
G36*
X72273643Y-30499781D02*
X72419415Y-30560162D01*
X72550611Y-30647824D01*
X72662176Y-30759389D01*
X72749838Y-30890585D01*
X72810219Y-31036357D01*
X72841000Y-31191107D01*
X72841000Y-31348893D01*
X72810219Y-31503643D01*
X72749838Y-31649415D01*
X72662176Y-31780611D01*
X72550611Y-31892176D01*
X72419415Y-31979838D01*
X72273643Y-32040219D01*
X72118893Y-32071000D01*
X71961107Y-32071000D01*
X71806357Y-32040219D01*
X71660585Y-31979838D01*
X71529389Y-31892176D01*
X71417824Y-31780611D01*
X71330162Y-31649415D01*
X71269781Y-31503643D01*
X71239000Y-31348893D01*
X71239000Y-31191107D01*
X71269781Y-31036357D01*
X71330162Y-30890585D01*
X71417824Y-30759389D01*
X71529389Y-30647824D01*
X71660585Y-30560162D01*
X71806357Y-30499781D01*
X71961107Y-30469000D01*
X72118893Y-30469000D01*
X72273643Y-30499781D01*
X72273643Y-30499781D01*
G37*
G36*
X82875256Y-28391298D02*
X82981579Y-28412447D01*
X83282042Y-28536903D01*
X83548852Y-28715180D01*
X83552454Y-28717587D01*
X83782413Y-28947546D01*
X83782415Y-28947549D01*
X83963097Y-29217958D01*
X84087553Y-29518421D01*
X84103659Y-29599392D01*
X84151000Y-29837389D01*
X84151000Y-30162611D01*
X84123055Y-30303097D01*
X84087553Y-30481579D01*
X84029965Y-30620608D01*
X83973129Y-30757824D01*
X83963097Y-30782042D01*
X83817071Y-31000585D01*
X83782413Y-31052454D01*
X83552454Y-31282413D01*
X83552451Y-31282415D01*
X83282042Y-31463097D01*
X82981579Y-31587553D01*
X82875256Y-31608702D01*
X82662611Y-31651000D01*
X82337389Y-31651000D01*
X82124744Y-31608702D01*
X82018421Y-31587553D01*
X81717958Y-31463097D01*
X81447549Y-31282415D01*
X81447546Y-31282413D01*
X81217587Y-31052454D01*
X81182929Y-31000585D01*
X81036903Y-30782042D01*
X81026872Y-30757824D01*
X80970035Y-30620608D01*
X80912447Y-30481579D01*
X80876945Y-30303097D01*
X80849000Y-30162611D01*
X80849000Y-29837389D01*
X80896341Y-29599392D01*
X80912447Y-29518421D01*
X81036903Y-29217958D01*
X81217585Y-28947549D01*
X81217587Y-28947546D01*
X81447546Y-28717587D01*
X81451148Y-28715180D01*
X81717958Y-28536903D01*
X82018421Y-28412447D01*
X82124744Y-28391298D01*
X82337389Y-28349000D01*
X82662611Y-28349000D01*
X82875256Y-28391298D01*
X82875256Y-28391298D01*
G37*
G36*
X93193643Y-29339781D02*
X93339415Y-29400162D01*
X93470611Y-29487824D01*
X93582176Y-29599389D01*
X93669838Y-29730585D01*
X93730219Y-29876357D01*
X93761000Y-30031107D01*
X93761000Y-30188893D01*
X93730219Y-30343643D01*
X93669838Y-30489415D01*
X93582176Y-30620611D01*
X93470611Y-30732176D01*
X93339415Y-30819838D01*
X93193643Y-30880219D01*
X93038893Y-30911000D01*
X92881107Y-30911000D01*
X92726357Y-30880219D01*
X92580585Y-30819838D01*
X92449389Y-30732176D01*
X92337824Y-30620611D01*
X92250162Y-30489415D01*
X92189781Y-30343643D01*
X92159000Y-30188893D01*
X92159000Y-30031107D01*
X92189781Y-29876357D01*
X92250162Y-29730585D01*
X92337824Y-29599389D01*
X92449389Y-29487824D01*
X92580585Y-29400162D01*
X92726357Y-29339781D01*
X92881107Y-29309000D01*
X93038893Y-29309000D01*
X93193643Y-29339781D01*
X93193643Y-29339781D01*
G37*
G36*
X70301000Y-30801000D02*
X68699000Y-30801000D01*
X68699000Y-29199000D01*
X70301000Y-29199000D01*
X70301000Y-30801000D01*
X70301000Y-30801000D01*
G37*
G36*
X102225256Y-27231298D02*
X102331579Y-27252447D01*
X102632042Y-27376903D01*
X102898852Y-27555180D01*
X102902454Y-27557587D01*
X103132413Y-27787546D01*
X103132415Y-27787549D01*
X103313097Y-28057958D01*
X103437553Y-28358421D01*
X103501000Y-28677391D01*
X103501000Y-29002609D01*
X103437553Y-29321579D01*
X103313097Y-29622042D01*
X103205915Y-29782451D01*
X103132413Y-29892454D01*
X102902454Y-30122413D01*
X102902451Y-30122415D01*
X102632042Y-30303097D01*
X102331579Y-30427553D01*
X102225256Y-30448702D01*
X102012611Y-30491000D01*
X101687389Y-30491000D01*
X101474744Y-30448702D01*
X101368421Y-30427553D01*
X101067958Y-30303097D01*
X100797549Y-30122415D01*
X100797546Y-30122413D01*
X100567587Y-29892454D01*
X100494085Y-29782451D01*
X100386903Y-29622042D01*
X100262447Y-29321579D01*
X100199000Y-29002609D01*
X100199000Y-28677391D01*
X100262447Y-28358421D01*
X100386903Y-28057958D01*
X100567585Y-27787549D01*
X100567587Y-27787546D01*
X100797546Y-27557587D01*
X100801148Y-27555180D01*
X101067958Y-27376903D01*
X101368421Y-27252447D01*
X101474744Y-27231298D01*
X101687389Y-27189000D01*
X102012611Y-27189000D01*
X102225256Y-27231298D01*
X102225256Y-27231298D01*
G37*
G36*
X63525256Y-27121298D02*
X63631579Y-27142447D01*
X63932042Y-27266903D01*
X64096667Y-27376902D01*
X64202454Y-27447587D01*
X64432413Y-27677546D01*
X64613098Y-27947960D01*
X64737553Y-28248422D01*
X64801000Y-28567389D01*
X64801000Y-28892611D01*
X64790072Y-28947549D01*
X64737553Y-29211579D01*
X64659439Y-29400162D01*
X64623129Y-29487824D01*
X64613097Y-29512042D01*
X64467071Y-29730585D01*
X64432413Y-29782454D01*
X64202454Y-30012413D01*
X64202451Y-30012415D01*
X63932042Y-30193097D01*
X63631579Y-30317553D01*
X63525256Y-30338702D01*
X63312611Y-30381000D01*
X62987389Y-30381000D01*
X62774744Y-30338702D01*
X62668421Y-30317553D01*
X62367958Y-30193097D01*
X62097549Y-30012415D01*
X62097546Y-30012413D01*
X61867587Y-29782454D01*
X61832929Y-29730585D01*
X61686903Y-29512042D01*
X61676872Y-29487824D01*
X61640561Y-29400162D01*
X61562447Y-29211579D01*
X61509928Y-28947549D01*
X61499000Y-28892611D01*
X61499000Y-28567389D01*
X61562447Y-28248422D01*
X61686902Y-27947960D01*
X61867587Y-27677546D01*
X62097546Y-27447587D01*
X62203333Y-27376902D01*
X62367958Y-27266903D01*
X62668421Y-27142447D01*
X62774744Y-27121298D01*
X62987389Y-27079000D01*
X63312611Y-27079000D01*
X63525256Y-27121298D01*
X63525256Y-27121298D01*
G37*
M02*
