G04 #@! TF.GenerationSoftware,KiCad,Pcbnew,5.0.2-bee76a0~70~ubuntu18.04.1*
G04 #@! TF.CreationDate,2019-08-12T13:45:13+02:00*
G04 #@! TF.ProjectId,motionBreakout,6d6f7469-6f6e-4427-9265-616b6f75742e,rev?*
G04 #@! TF.SameCoordinates,Original*
G04 #@! TF.FileFunction,Profile,NP*
%FSLAX46Y46*%
G04 Gerber Fmt 4.6, Leading zero omitted, Abs format (unit mm)*
G04 Created by KiCad (PCBNEW 5.0.2-bee76a0~70~ubuntu18.04.1) date Mon 12 Aug 2019 13:45:13 CEST*
%MOMM*%
%LPD*%
G01*
G04 APERTURE LIST*
%ADD10C,0.150000*%
G04 APERTURE END LIST*
D10*
X60000000Y-70000000D02*
X60000000Y-25000000D01*
X105000000Y-70000000D02*
X60000000Y-70000000D01*
X105000000Y-25000000D02*
X105000000Y-70000000D01*
X60000000Y-25000000D02*
X105000000Y-25000000D01*
M02*
